Simulation
…
Calculate the response as the sum of the value of \(\lambda_i\) for that patient \(\beta_ir\) for that cycle, \(\epsilon_{irs}\) for that occasion and the product of \(\tau_i\) for that patient multiplied by \(Z_irs\) for that occasion.

rand_df <- rand_df %>% 
  mutate(Z = if_else(rand == "A", 1/2, -1/2)) %>% 
  mutate(Y = lambda + beta + epsilon + tau*Z) %>% 
  select(id, cycle, rand, Y, lambda, beta, epsilon, Z, tau)

rand_df

## # A tibble: 544 x 9
## # Groups:   id [34]
##       id cycle rand      Y lambda    beta epsilon     Z   tau
##    <int> <int> <fct> <dbl>  <dbl>   <dbl>   <dbl> <dbl> <dbl>
##  1     1     1 A      42.5   44.1  0.0750  -0.169   0.5 -2.96
##  2     1     1 A      44.4   44.1  0.0750   1.68    0.5 -2.96
##  3     1     1 B      44.7   44.1  0.0750  -0.927  -0.5 -2.96
##  4     1     1 B      44.5   44.1  0.0750  -1.10   -0.5 -2.96
##  5     1     2 B      46.3   44.1 -0.737    1.47   -0.5 -2.96
##  6     1     2 B      44.6   44.1 -0.737   -0.216  -0.5 -2.96
##  7     1     2 A      41.5   44.1 -0.737   -0.341   0.5 -2.96
##  8     1     2 A      39.7   44.1 -0.737   -2.18    0.5 -2.96
##  9     1     3 B      34.1   44.1 -5.49    -6.02   -0.5 -2.96
## 10     1     3 B      38.9   44.1 -5.49    -1.19   -0.5 -2.96
## #  with 534 more rows
…
## # A tibble: 2 x 6
##   term        estimate std.error statistic conf.low conf.high
##   <chr>          <dbl>     <dbl>     <dbl>    <dbl>     <dbl>
## 1 (Intercept)    45.6       1.34     34.2     43.0      48.3 
## 2 Z               3.80      1.38      2.75     1.09      6.50

For the secondary outcome of estimating heterogeneity of treatment effects correctly, we will consider an interval of 7.2, 8.8  2 minimally-important standard deviations from the true heterogeneity of treatment effect  to be acceptable for the operating characteristics.

Functions

#function to block randomize
get_n_blockrands(n_pt = n, n_cycles = k, n_tx = s, char_tx = c("A", "B"))

## # A tibble: 34 x 2
##       id rand     
##    <int> <list>   
##  1     1 <fct [8]>
##  2     2 <fct [8]>
##  3     3 <fct [8]>
##  4     4 <fct [8]>
##  5     5 <fct [8]>
##  6     6 <fct [8]>
##  7     7 <fct [8]>
##  8     8 <fct [8]>
##  9     9 <fct [8]>
## 10    10 <fct [8]>
## #  with 24 more rows
…
refactoring

m = 2
df_blockrand <- get_n_blockrands()
char_tx = c("A", "B")
df_blockrand %>% 
    get_pt_level_effects(dat = ., pop_mean_Y = Lambda, pop_sd_Y = phi, pop_ave_TE = T, pop_sd_TE = psi) %>% 
    get_cycle_level_effects(dat = ., n_cycles = k, sd_Y_cycles = gamma) %>% 
    get_occasion_level_effects(dat = ., measurements = m, sd_Y_occassion = sigma) %>% 
    get_tx_ind(dat = ., char_tx = char_tx) %>% 
    get_outcome(dat = .)

## # A tibble: 544 x 9
## # Groups:   id [34]
##       id cycle rand      Y lambda   beta epsilon     Z   tau
##    <int> <int> <fct> <dbl>  <dbl>  <dbl>   <dbl> <dbl> <dbl>
##  1     1     1 B      47.3   40.5  2.67   3.48    -0.5 -1.29
##  2     1     1 B      46.0   40.5  2.67   2.17    -0.5 -1.29
##  3     1     1 A      45.1   40.5  2.67   2.62     0.5 -1.29
##  4     1     1 A      40.6   40.5  2.67  -1.92     0.5 -1.29
##  5     1     2 A      40.1   40.5 -0.712  0.961    0.5 -1.29
##  6     1     2 A      36.0   40.5 -0.712 -3.13     0.5 -1.29
##  7     1     2 B      42.8   40.5 -0.712  2.40    -0.5 -1.29
##  8     1     2 B      42.4   40.5 -0.712  2.00    -0.5 -1.29
##  9     1     3 A      38.3   40.5 -1.59   0.0560   0.5 -1.29
## 10     1     3 A      37.7   40.5 -1.59  -0.583    0.5 -1.29
## #  with 534 more rows
