…
<!-- end list -->

``` r
rand_df <- rand_df %>% 
  mutate(Z = if_else(rand == "A", 1/2, -1/2)) %>% 
  mutate(Y = lambda + beta + epsilon + tau*Z) %>% 
  select(id, cycle, rand, Y, lambda, beta, epsilon, Z, tau)

rand_df
```

    ## # A tibble: 544 x 9
    ## # Groups:   id [34]
    ##       id cycle rand      Y lambda    beta epsilon     Z   tau
    ##    <int> <int> <fct> <dbl>  <dbl>   <dbl>   <dbl> <dbl> <dbl>
    ##  1     1     1 A      45.6   44.1  0.0750  -0.169   0.5  3.13
    ##  2     1     1 A      47.4   44.1  0.0750   1.68    0.5  3.13
    ##  3     1     1 B      41.7   44.1  0.0750  -0.927  -0.5  3.13
    ##  4     1     1 B      41.5   44.1  0.0750  -1.10   -0.5  3.13
    ##  5     1     2 B      43.3   44.1 -0.737    1.47   -0.5  3.13
    ##  6     1     2 B      41.6   44.1 -0.737   -0.216  -0.5  3.13
    ##  7     1     2 A      44.6   44.1 -0.737   -0.341   0.5  3.13
    ##  8     1     2 A      42.7   44.1 -0.737   -2.18    0.5  3.13
    ##  9     1     3 B      31.0   44.1 -5.49    -6.02   -0.5  3.13
    ## 10     1     3 B      35.9   44.1 -5.49    -1.19   -0.5  3.13
    ## # … with 534 more rows
…
For the secondary outcome of estimating heterogeneity of treatment
effects correctly, we will consider an interval of 0.2, 1.8 – 2
minimally-important standard deviations from the true heterogeneity of
treatment effect – to be acceptable for the operating characteristics.

## Functions

``` r
#function to block randomize
get_n_blockrands(n_pt = n, n_cycles = k, n_tx = s, char_tx = c("A", "B"))
```

    ## # A tibble: 34 x 2
    ##       id rand     
    ##    <int> <list>   
    ##  1     1 <fct [8]>
    ##  2     2 <fct [8]>
    ##  3     3 <fct [8]>
    ##  4     4 <fct [8]>
    ##  5     5 <fct [8]>
    ##  6     6 <fct [8]>
    ##  7     7 <fct [8]>
    ##  8     8 <fct [8]>
    ##  9     9 <fct [8]>
    ## 10    10 <fct [8]>
    ## # … with 24 more rows
…
sim_df$data[[1]] %>% 
  select(id, cycle, rand, Y) %>% 
  group_by(id, cycle) %>% 
  pivot_wider(names_from = rand, values_from = Y, names_prefix = "t_", values_fn = list(Y  = mean)) %>%
  summarize(d = t_A - t_B) %>% 
  summarize(d_mean = mean(d),
            d_var = var(d))
```

    ## # A tibble: 34 x 3
    ##       id d_mean d_var
    ##    <int>  <dbl> <dbl>
    ##  1     1   4.86  2.85
    ##  2     2   4.30  1.09
    ##  3     3   4.06  2.08
    ##  4     4   2.59  2.25
    ##  5     5   3.69  7.84
    ##  6     6   3.63  1.45
    ##  7     7   5.71  1.83
    ##  8     8   5.56  1.47
    ##  9     9   3.67  1.40
    ## 10    10   4.42  3.12
    ## # … with 24 more rows
…
